\relax 
\ifx\hyper@anchor\@undefined
\global \let \oldcontentsline\contentsline
\gdef \contentsline#1#2#3#4{\oldcontentsline{#1}{#2}{#3}}
\global \let \oldnewlabel\newlabel
\gdef \newlabel#1#2{\newlabelxx{#1}#2}
\gdef \newlabelxx#1#2#3#4#5#6{\oldnewlabel{#1}{{#2}{#3}}}
\AtEndDocument{\let \contentsline\oldcontentsline
\let \newlabel\oldnewlabel}
\else
\global \let \hyper@last\relax 
\fi

\citation{Ortega and Yu:15}
\citation{Weischedel et al:13}
\citation{Tjong Kim Sang and De Meulder:03}
\citation{Winston:92}
\citation{Russel and Norvig:10}
\@writefile{toc}{\contentsline {section}{\numberline {1}Introduction}{1}{section.1}}
\@writefile{toc}{\contentsline {section}{\numberline {2}Methods and Data}{1}{section.2}}
\@writefile{toc}{\contentsline {subsection}{\numberline {2.1}Multi-label Perceptron for Token Tagging}{1}{subsection.2.1}}
\@writefile{toc}{\contentsline {subsection}{\numberline {2.2}Multi-label Perceptron for Named Entity Recognition}{2}{subsection.2.2}}
\@writefile{toc}{\contentsline {section}{\numberline {3}Experiments}{2}{section.3}}
\@writefile{toc}{\contentsline {subsection}{\numberline {3.1}Part-of-Speech Tagging}{2}{subsection.3.1}}
\@writefile{toc}{\contentsline {subsubsection}{\numberline {3.1.1}Experiment 1: POS Tagging with Baseline Features}{2}{subsubsection.3.1.1}}
\@writefile{toc}{\contentsline {subsubsection}{\numberline {3.1.2}Error Analysis}{2}{subsubsection.3.1.2}}
\@writefile{lot}{\contentsline {table}{\numberline {1}{\ignorespaces Features used for POS-tagging}}{3}{table.1}}
\newlabel{tab:features}{{1}{3}{\label {tab:features}Features used for POS-tagging\relax }{table.1}{}}
\@writefile{lot}{\contentsline {table}{\numberline {2}{\ignorespaces Results for experiment 1 (in \%, trained on train.col, tested on dev.col)}}{3}{table.2}}
\newlabel{tab:initial_results}{{2}{3}{\label {tab:initial_results}Results for experiment 1 (in \%, trained on train.col, tested on dev.col)\relax }{table.2}{}}
\@writefile{toc}{\contentsline {subsubsection}{\numberline {3.1.3}Experiment 2: POS Tagging with Extended Features}{3}{subsubsection.3.1.3}}
\@writefile{lot}{\contentsline {table}{\numberline {3}{\ignorespaces  Examples of large proportion false negatives for POS-tagger}}{3}{table.3}}
\newlabel{tab:false_negatives}{{3}{3}{\label {tab:false_negatives} Examples of large proportion false negatives for POS-tagger\relax }{table.3}{}}
\@writefile{lot}{\contentsline {table}{\numberline {4}{\ignorespaces Macro-averaged results with extended feature sets (in \%).}}{3}{table.4}}
\newlabel{tab:contribution_of_new_features}{{4}{3}{\label {tab:contribution_of_new_features}Macro-averaged results with extended feature sets (in \%)}{table.4}{}}
\@writefile{lof}{\contentsline {figure}{\numberline {1}{\ignorespaces  Proportion of false negatives by POS for extended feature sets}}{4}{figure.1}}
\newlabel{fig:extended_feat_by_pos}{{1}{4}{\label {fig:extended_feat_by_pos} Proportion of false negatives by POS for extended feature sets\relax }{figure.1}{}}
\@writefile{lot}{\contentsline {table}{\numberline {5}{\ignorespaces Macro-averaged results for unlabeled test data (in \%).}}{4}{table.5}}
\newlabel{tab:nolabels_results}{{5}{4}{\label {tab:nolabels_results}Macro-averaged results for unlabeled test data (in \%)}{table.5}{}}
\@writefile{lot}{\contentsline {table}{\numberline {6}{\ignorespaces Results for POS-tagging task in sequential model (in \%).}}{4}{table.6}}
\newlabel{tab:pos_sequential}{{6}{4}{\label {tab:pos_sequential}Results for POS-tagging task in sequential model (in \%)}{table.6}{}}
\@writefile{toc}{\contentsline {subsubsection}{\numberline {3.1.4}Experiment 3: POS Tagging Using the Sequential Model}{4}{subsubsection.3.1.4}}
\@writefile{toc}{\contentsline {subsection}{\numberline {3.2}Named Entity Recognition}{4}{subsection.3.2}}
\@writefile{toc}{\contentsline {subsubsection}{\numberline {3.2.1}Experiment 4: NER on CoNLL-2003 Shared Task Data}{4}{subsubsection.3.2.1}}
\@writefile{toc}{\contentsline {subsubsection}{\numberline {3.2.2}Experiment 5: NER on Crawled News Data}{4}{subsubsection.3.2.2}}
\bibcite{Winston:92}{\citename {Winston}1992}
\bibcite{Russel and Norvig:10}{\citename {Russel and Norvig}2010}
\bibcite{Weischedel et al:13}{\citename {Weischedel et al.}2013}
\@writefile{lot}{\contentsline {table}{\numberline {7}{\ignorespaces Comparison of non-/sequential results for NER task (in \%, trained on train.iob + dev.iob, tested on test.iob).}}{5}{table.7}}
\newlabel{tab:NER_results}{{7}{5}{\label {tab:NER_results}Comparison of non-/sequential results for NER task (in \%, trained on train.iob + dev.iob, tested on test.iob)}{table.7}{}}
\@writefile{lot}{\contentsline {table}{\numberline {8}{\ignorespaces 10 most frequent named entities for August 1, 2015.}}{5}{table.8}}
\newlabel{tab:nes_0108}{{8}{5}{\label {tab:nes_0108}10 most frequent named entities for August 1, 2015}{table.8}{}}
\@writefile{toc}{\contentsline {section}{\numberline {4}General Discussion}{5}{section.4}}
\@writefile{lot}{\contentsline {table}{\numberline {9}{\ignorespaces Most frequent named entities for each category by date.}}{5}{table.9}}
\newlabel{tab:nes_by_date}{{9}{5}{\label {tab:nes_by_date}Most frequent named entities for each category by date}{table.9}{}}
\@writefile{lof}{\contentsline {figure}{\numberline {2}{\ignorespaces  Normalized frequency of "Turkey LOC" named entity over time ($10^{-6}$).}}{5}{figure.2}}
\newlabel{fig:turkey}{{2}{5}{\label {fig:turkey} Normalized frequency of "Turkey LOC" named entity over time ($10^{-6}$)}{figure.2}{}}
\@writefile{toc}{\contentsline {section}{\numberline {5}Conclusion}{5}{section.5}}
\bibcite{Ortega and Yu:15}{\citename {Ortega and Yu}2015}
\bibcite{Tjong Kim Sang and De Meulder:03}{\citename {Tjong Kim Sang and De Meulder}2003}
