Stats by POS: 
Micro: POS: DT Precision: 0.961538461538 Recall: 0.961538461538 F1: 0.961538461538 Accuracy: 0.996336996337
Macro: POS: DT Precision: 0.873015873016 Recall: 0.895238095238 F1: 0.875661375661 Accuracy: 0.996336996337
Micro: POS: NN Precision: 0.961538461538 Recall: 0.961538461538 F1: 0.961538461538 Accuracy: 0.996336996337
Macro: POS: NN Precision: 0.873015873016 Recall: 0.895238095238 F1: 0.875661375661 Accuracy: 0.996336996337
Micro: POS: POS Precision: 0.961538461538 Recall: 0.961538461538 F1: 0.961538461538 Accuracy: 0.996336996337
Macro: POS: POS Precision: 0.873015873016 Recall: 0.895238095238 F1: 0.875661375661 Accuracy: 0.996336996337
Micro: POS: MD Precision: 0.961538461538 Recall: 0.961538461538 F1: 0.961538461538 Accuracy: 0.996336996337
Macro: POS: MD Precision: 0.873015873016 Recall: 0.895238095238 F1: 0.875661375661 Accuracy: 0.996336996337
Micro: POS: VB Precision: 0.961538461538 Recall: 0.961538461538 F1: 0.961538461538 Accuracy: 0.996336996337
Macro: POS: VB Precision: 0.873015873016 Recall: 0.895238095238 F1: 0.875661375661 Accuracy: 0.996336996337
Micro: POS: VBN Precision: 0.961538461538 Recall: 0.961538461538 F1: 0.961538461538 Accuracy: 0.996336996337
Macro: POS: VBN Precision: 0.873015873016 Recall: 0.895238095238 F1: 0.875661375661 Accuracy: 0.996336996337
Micro: POS: IN Precision: 0.961538461538 Recall: 0.961538461538 F1: 0.961538461538 Accuracy: 0.996336996337
Macro: POS: IN Precision: 0.873015873016 Recall: 0.895238095238 F1: 0.875661375661 Accuracy: 0.996336996337
Micro: POS: JJ Precision: 0.961538461538 Recall: 0.961538461538 F1: 0.961538461538 Accuracy: 0.996336996337
Macro: POS: JJ Precision: 0.873015873016 Recall: 0.895238095238 F1: 0.875661375661 Accuracy: 0.996336996337
Micro: POS: NNS Precision: 0.961538461538 Recall: 0.961538461538 F1: 0.961538461538 Accuracy: 0.996336996337
Macro: POS: NNS Precision: 0.873015873016 Recall: 0.895238095238 F1: 0.875661375661 Accuracy: 0.996336996337
Micro: POS: , Precision: 0.961538461538 Recall: 0.961538461538 F1: 0.961538461538 Accuracy: 0.996336996337
Macro: POS: , Precision: 0.873015873016 Recall: 0.895238095238 F1: 0.875661375661 Accuracy: 0.996336996337
Micro: POS: CC Precision: 0.961538461538 Recall: 0.961538461538 F1: 0.961538461538 Accuracy: 0.996336996337
Macro: POS: CC Precision: 0.873015873016 Recall: 0.895238095238 F1: 0.875661375661 Accuracy: 0.996336996337
Micro: POS: . Precision: 0.961538461538 Recall: 0.961538461538 F1: 0.961538461538 Accuracy: 0.996336996337
Macro: POS: . Precision: 0.873015873016 Recall: 0.895238095238 F1: 0.875661375661 Accuracy: 0.996336996337
Micro: POS: RBS Precision: 0.961538461538 Recall: 0.961538461538 F1: 0.961538461538 Accuracy: 0.996336996337
Macro: POS: RBS Precision: 0.873015873016 Recall: 0.895238095238 F1: 0.875661375661 Accuracy: 0.996336996337
Micro: POS: NNP Precision: 0.961538461538 Recall: 0.961538461538 F1: 0.961538461538 Accuracy: 0.996336996337
Macro: POS: NNP Precision: 0.873015873016 Recall: 0.895238095238 F1: 0.875661375661 Accuracy: 0.996336996337
Micro: POS: VBZ Precision: 0.961538461538 Recall: 0.961538461538 F1: 0.961538461538 Accuracy: 0.996336996337
Macro: POS: VBZ Precision: 0.873015873016 Recall: 0.895238095238 F1: 0.875661375661 Accuracy: 0.996336996337
Micro: POS: TO Precision: 0.961538461538 Recall: 0.961538461538 F1: 0.961538461538 Accuracy: 0.996336996337
Macro: POS: TO Precision: 0.873015873016 Recall: 0.895238095238 F1: 0.875661375661 Accuracy: 0.996336996337
Micro: POS: $ Precision: 0.961538461538 Recall: 0.961538461538 F1: 0.961538461538 Accuracy: 0.996336996337
Macro: POS: $ Precision: 0.873015873016 Recall: 0.895238095238 F1: 0.875661375661 Accuracy: 0.996336996337
Micro: POS: CD Precision: 0.961538461538 Recall: 0.961538461538 F1: 0.961538461538 Accuracy: 0.996336996337
Macro: POS: CD Precision: 0.873015873016 Recall: 0.895238095238 F1: 0.875661375661 Accuracy: 0.996336996337
Micro: POS: VBG Precision: 0.961538461538 Recall: 0.961538461538 F1: 0.961538461538 Accuracy: 0.996336996337
Macro: POS: VBG Precision: 0.873015873016 Recall: 0.895238095238 F1: 0.875661375661 Accuracy: 0.996336996337
Micro: POS: HYPH Precision: 0.961538461538 Recall: 0.961538461538 F1: 0.961538461538 Accuracy: 0.996336996337
Macro: POS: HYPH Precision: 0.873015873016 Recall: 0.895238095238 F1: 0.875661375661 Accuracy: 0.996336996337
Micro: POS: : Precision: 0.961538461538 Recall: 0.961538461538 F1: 0.961538461538 Accuracy: 0.996336996337
Macro: POS: : Precision: 0.873015873016 Recall: 0.895238095238 F1: 0.875661375661 Accuracy: 0.996336996337
