My score is:  (25, 25)
My score is:  (15, 15)
My score is:  (35, 38)
My score is:  (30, 31)
My score is:  (28, 31)
My score is:  (26, 27)
My score is:  (15, 16)
My score is:  (24, 24)
My score is:  (30, 30)
My score is:  (24, 24)
My score is:  (26, 27)
My score is:  (23, 24)
My score is:  (35, 39)
My score is:  (31, 34)
My score is:  (27, 27)
My score is:  (19, 19)
My score is:  (33, 33)
My score is:  (24, 24)
My score is:  (28, 30)
My score is:  (24, 24)
My score is:  (20, 21)
My score is:  (17, 17)
My score is:  (25, 26)
My score is:  (2, 4)
My score is:  (28, 32)
My score is:  (5, 5)
My score is:  (2, 2)
My score is:  (17, 21)
My score is:  (4, 4)
My score is:  (32, 32)
My score is:  (22, 24)
My score is:  (14, 15)
My score is:  (11, 11)
My score is:  (51, 59)
My score is:  (38, 40)
My score is:  (18, 22)
My score is:  (34, 34)
My score is:  (13, 16)
My score is:  (27, 28)
My score is:  (22, 23)
My score is:  (11, 11)
My score is:  (25, 27)
My score is:  (11, 11)
My score is:  (21, 21)
My score is:  (5, 5)
My score is:  (14, 17)
My score is:  (11, 13)
My score is:  (32, 33)
My score is:  (28, 29)
My score is:  (25, 27)
My score is:  (27, 28)
My score is:  (5, 5)
My score is:  (31, 33)
My score is:  (8, 9)
My score is:  (9, 9)
My score is:  (49, 53)
My score is:  (28, 29)
My score is:  (26, 31)
My score is:  (19, 21)
My score is:  (18, 19)
My score is:  (21, 21)
My score is:  (29, 32)
My score is:  (35, 38)
My score is:  (23, 24)
My score is:  (46, 50)
My score is:  (24, 27)
My score is:  (27, 29)
My score is:  (16, 16)
My score is:  (29, 35)
My score is:  (42, 46)
My score is:  (8, 8)
My score is:  (28, 30)
My score is:  (16, 20)
My score is:  (58, 61)
My score is:  (41, 45)
My score is:  (15, 15)
My score is:  (18, 19)
My score is:  (14, 14)
My score is:  (5, 5)
My score is:  (12, 12)
My score is:  (35, 39)
My score is:  (35, 39)
My score is:  (31, 34)
My score is:  (23, 24)
My score is:  (59, 62)
My score is:  (46, 46)
My score is:  (21, 22)
My score is:  (32, 33)
My score is:  (31, 33)
My score is:  (13, 14)
My score is:  (25, 28)
My score is:  (45, 46)
My score is:  (21, 25)
My score is:  (34, 36)
My score is:  (38, 42)
My score is:  (20, 21)
My score is:  (32, 34)
My score is:  (18, 20)
My score is:  (12, 13)
My score is:  (25, 26)
My score is:  (30, 33)
My score is:  (28, 30)
My score is:  (14, 18)
My score is:  (33, 33)
My score is:  (34, 35)
My score is:  (14, 17)
My score is:  (17, 17)
My score is:  (28, 28)
My score is:  (33, 33)
My score is:  (18, 21)
My score is:  (16, 16)
My score is:  (23, 24)
My score is:  (26, 27)
My score is:  (11, 11)
My score is:  (21, 23)
My score is:  (20, 21)
My score is:  (40, 42)
My score is:  (23, 23)
My score is:  (12, 12)
My score is:  (22, 22)
My score is:  (19, 19)
My score is:  (17, 17)
My score is:  (17, 17)
My score is:  (21, 22)
My score is:  (15, 16)
My score is:  (26, 28)
My score is:  (14, 15)
My score is:  (29, 29)
My score is:  (9, 11)
My score is:  (3, 4)
My score is:  (9, 10)
My score is:  (16, 18)
My score is:  (12, 12)
My score is:  (22, 22)
My score is:  (13, 15)
My score is:  (14, 14)
My score is:  (5, 7)
My score is:  (21, 24)
My score is:  (36, 37)
My score is:  (14, 14)
My score is:  (24, 24)
My score is:  (40, 44)
My score is:  (24, 24)
My score is:  (23, 23)
My score is:  (15, 15)
My score is:  (14, 14)
My score is:  (20, 20)
My score is:  (30, 31)
My score is:  (30, 32)
My score is:  (18, 22)
My score is:  (12, 12)
My score is:  (12, 12)
My score is:  (10, 10)
My score is:  (8, 9)
My score is:  (27, 29)
My score is:  (36, 37)
My score is:  (11, 11)
My score is:  (31, 34)
My score is:  (30, 30)
My score is:  (25, 26)
My score is:  (22, 22)
My score is:  (31, 33)
My score is:  (18, 18)
My score is:  (54, 56)
My score is:  (7, 7)
My score is:  (41, 42)
My score is:  (43, 44)
My score is:  (24, 27)
My score is:  (9, 9)
My score is:  (10, 10)
My score is:  (17, 19)
My score is:  (20, 21)
My score is:  (13, 14)
My score is:  (16, 17)
My score is:  (13, 13)
My score is:  (33, 36)
My score is:  (23, 23)
My score is:  (27, 28)
My score is:  (18, 18)
My score is:  (27, 30)
My score is:  (30, 32)
My score is:  (20, 20)
My score is:  (26, 28)
My score is:  (11, 11)
My score is:  (17, 17)
My score is:  (11, 11)
My score is:  (16, 17)
My score is:  (12, 12)
My score is:  (39, 46)
My score is:  (19, 21)
My score is:  (28, 33)
My score is:  (37, 37)
My score is:  (9, 11)
My score is:  (15, 15)
My score is:  (30, 32)
My score is:  (31, 32)
My score is:  (42, 45)
My score is:  (18, 19)
My score is:  (21, 23)
My score is:  (28, 30)
My score is:  (24, 25)
My score is:  (12, 13)
My score is:  (29, 34)
My score is:  (29, 31)
My score is:  (21, 25)
My score is:  (31, 32)
My score is:  (28, 30)
My score is:  (32, 37)
My score is:  (24, 24)
My score is:  (41, 43)
My score is:  (25, 28)
My score is:  (13, 14)
My score is:  (44, 45)
My score is:  (106, 118)
My score is:  (26, 27)
My score is:  (31, 33)
My score is:  (30, 30)
My score is:  (9, 9)
My score is:  (13, 13)
My score is:  (11, 11)
My score is:  (34, 37)
My score is:  (21, 21)
My score is:  (40, 40)
My score is:  (11, 11)
My score is:  (24, 24)
My score is:  (52, 59)
My score is:  (16, 19)
My score is:  (3, 3)
My score is:  (25, 25)
My score is:  (34, 35)
My score is:  (39, 48)
My score is:  (41, 45)
My score is:  (8, 8)
My score is:  (13, 15)
My score is:  (41, 43)
My score is:  (12, 13)
My score is:  (22, 22)
My score is:  (32, 34)
My score is:  (17, 17)
My score is:  (27, 27)
My score is:  (25, 27)
My score is:  (17, 18)
My score is:  (11, 12)
My score is:  (19, 20)
My score is:  (22, 23)
My score is:  (38, 41)
My score is:  (26, 27)
My score is:  (35, 35)
My score is:  (12, 13)
My score is:  (24, 25)
My score is:  (26, 26)
My score is:  (12, 13)
My score is:  (19, 19)
My score is:  (21, 21)
My score is:  (8, 8)
My score is:  (9, 9)
My score is:  (35, 39)
My score is:  (15, 17)
My score is:  (33, 35)
My score is:  (43, 48)
My score is:  (7, 7)
My score is:  (22, 22)
My score is:  (8, 9)
My score is:  (7, 8)
My score is:  (17, 20)
My score is:  (24, 24)
My score is:  (6, 6)
My score is:  (17, 18)
My score is:  (14, 15)
My score is:  (20, 20)
My score is:  (35, 36)
My score is:  (16, 16)
My score is:  (8, 8)
My score is:  (20, 20)
My score is:  (7, 7)
My score is:  (4, 4)
My score is:  (5, 8)
My score is:  (3, 4)
My score is:  (15, 18)
My score is:  (8, 8)
My score is:  (6, 7)
My score is:  (20, 20)
My score is:  (5, 5)
My score is:  (10, 12)
My score is:  (5, 6)
My score is:  (12, 14)
My score is:  (4, 4)
My score is:  (17, 18)
My score is:  (9, 9)
My score is:  (19, 20)
My score is:  (12, 13)
My score is:  (7, 7)
My score is:  (7, 9)
My score is:  (8, 8)
My score is:  (15, 15)
My score is:  (21, 25)
My score is:  (30, 34)
My score is:  (20, 22)
My score is:  (4, 5)
My score is:  (9, 10)
My score is:  (4, 5)
My score is:  (7, 7)
My score is:  (14, 14)
My score is:  (17, 17)
My score is:  (14, 14)
My score is:  (35, 38)
My score is:  (7, 8)
My score is:  (23, 28)
My score is:  (33, 35)
My score is:  (16, 17)
My score is:  (5, 6)
My score is:  (26, 30)
My score is:  (15, 17)
My score is:  (4, 5)
My score is:  (16, 17)
My score is:  (6, 6)
My score is:  (7, 9)
My score is:  (7, 7)
My score is:  (5, 5)
My score is:  (34, 35)
My score is:  (27, 27)
My score is:  (7, 8)
My score is:  (9, 10)
My score is:  (7, 7)
My score is:  (23, 26)
My score is:  (14, 15)
My score is:  (14, 14)
My score is:  (10, 10)
My score is:  (22, 22)
My score is:  (30, 33)
My score is:  (10, 10)
My score is:  (15, 15)
My score is:  (32, 32)
My score is:  (7, 8)
My score is:  (10, 11)
My score is:  (18, 19)
My score is:  (14, 15)
My score is:  (7, 7)
My score is:  (31, 32)
My score is:  (53, 54)
My score is:  (30, 30)
My score is:  (14, 14)
My score is:  (40, 41)
My score is:  (35, 37)
My score is:  (44, 45)
My score is:  (23, 24)
My score is:  (19, 19)
My score is:  (26, 28)
My score is:  (15, 16)
My score is:  (23, 24)
My score is:  (23, 23)
My score is:  (18, 22)
My score is:  (21, 22)
My score is:  (14, 15)
My score is:  (16, 16)
My score is:  (23, 23)
My score is:  (16, 18)
My score is:  (17, 17)
My score is:  (39, 39)
My score is:  (15, 16)
My score is:  (7, 8)
My score is:  (28, 28)
My score is:  (48, 48)
My score is:  (19, 20)
My score is:  (16, 16)
My score is:  (18, 20)
My score is:  (23, 23)
My score is:  (31, 32)
My score is:  (16, 16)
My score is:  (17, 17)
My score is:  (26, 26)
My score is:  (21, 21)
My score is:  (12, 12)
My score is:  (20, 20)
My score is:  (20, 20)
My score is:  (21, 24)
My score is:  (35, 36)
My score is:  (28, 29)
My score is:  (19, 19)
My score is:  (28, 31)
My score is:  (27, 27)
My score is:  (24, 29)
My score is:  (7, 8)
My score is:  (8, 9)
My score is:  (5, 6)
My score is:  (7, 8)
My score is:  (3, 5)
My score is:  (4, 5)
My score is:  (22, 22)
My score is:  (46, 49)
My score is:  (30, 31)
My score is:  (18, 19)
My score is:  (15, 15)
My score is:  (28, 29)
My score is:  (13, 13)
My score is:  (12, 12)
My score is:  (25, 27)
My score is:  (36, 37)
My score is:  (29, 32)
My score is:  (29, 29)
My score is:  (37, 38)
My score is:  (36, 42)
My score is:  (27, 27)
My score is:  (25, 26)
My score is:  (21, 24)
My score is:  (28, 28)
My score is:  (6, 6)
My score is:  (12, 12)
My score is:  (23, 25)
My score is:  (39, 42)
My score is:  (20, 21)
My score is:  (28, 30)
My score is:  (21, 22)
My score is:  (16, 16)
My score is:  (26, 26)
My score is:  (27, 29)
My score is:  (30, 34)
My score is:  (22, 25)
My score is:  (12, 12)
My score is:  (21, 21)
My score is:  (40, 44)
My score is:  (24, 25)
My score is:  (25, 25)
My score is:  (59, 61)
My score is:  (10, 10)
My score is:  (36, 37)
My score is:  (37, 39)
My score is:  (39, 40)
My score is:  (12, 13)
My score is:  (19, 22)
My score is:  (10, 10)
My score is:  (17, 17)
My score is:  (16, 17)
My score is:  (26, 29)
My score is:  (18, 18)
My score is:  (19, 20)
My score is:  (15, 18)
My score is:  (7, 7)
My score is:  (14, 15)
My score is:  (9, 9)
My score is:  (9, 9)
My score is:  (6, 8)
My score is:  (3, 6)
My score is:  (9, 9)
My score is:  (7, 7)
My score is:  (7, 9)
My score is:  (13, 15)
My score is:  (10, 13)
My score is:  (7, 7)
My score is:  (18, 18)
My score is:  (3, 3)
My score is:  (16, 17)
My score is:  (23, 23)
My score is:  (39, 39)
My score is:  (29, 30)
My score is:  (26, 27)
My score is:  (18, 18)
My score is:  (25, 26)
My score is:  (21, 23)
My score is:  (32, 32)
My score is:  (29, 32)
My score is:  (16, 18)
My score is:  (31, 32)
My score is:  (47, 48)
My score is:  (30, 30)
My score is:  (27, 34)
My score is:  (20, 20)
My score is:  (23, 25)
My score is:  (34, 39)
My score is:  (11, 11)
My score is:  (25, 26)
My score is:  (15, 17)
My score is:  (21, 24)
My score is:  (39, 41)
My score is:  (32, 37)
My score is:  (30, 31)
My score is:  (28, 29)
My score is:  (40, 40)
My score is:  (24, 26)
My score is:  (14, 15)
My score is:  (38, 40)
My score is:  (23, 25)
My score is:  (37, 38)
My score is:  (40, 40)
My score is:  (20, 21)
My score is:  (8, 9)
My score is:  (23, 24)
My score is:  (9, 9)
My score is:  (23, 25)
My score is:  (21, 22)
My score is:  (10, 10)
My score is:  (40, 42)
My score is:  (19, 21)
My score is:  (24, 24)
My score is:  (19, 21)
My score is:  (39, 39)
My score is:  (22, 22)
My score is:  (19, 19)
My score is:  (14, 16)
My score is:  (32, 37)
My score is:  (35, 37)
My score is:  (8, 8)
My score is:  (21, 21)
My score is:  (20, 21)
My score is:  (20, 20)
My score is:  (16, 16)
My score is:  (33, 34)
My score is:  (26, 28)
My score is:  (16, 16)
My score is:  (10, 10)
My score is:  (23, 23)
My score is:  (21, 22)
My score is:  (19, 21)
My score is:  (16, 18)
My score is:  (28, 29)
My score is:  (46, 46)
My score is:  (12, 14)
My score is:  (30, 30)
My score is:  (23, 25)
My score is:  (22, 23)
My score is:  (26, 26)
My score is:  (33, 35)
My score is:  (21, 22)
My score is:  (34, 38)
My score is:  (16, 17)
My score is:  (22, 23)
My score is:  (14, 16)
My score is:  (15, 15)
My score is:  (10, 10)
My score is:  (11, 13)
My score is:  (32, 34)
My score is:  (28, 28)
My score is:  (36, 40)
My score is:  (23, 24)
My score is:  (12, 13)
My score is:  (5, 5)
My score is:  (16, 16)
My score is:  (19, 19)
My score is:  (20, 21)
My score is:  (11, 11)
My score is:  (29, 32)
My score is:  (37, 40)
My score is:  (18, 20)
My score is:  (22, 23)
My score is:  (22, 23)
My score is:  (17, 18)
My score is:  (38, 38)
My score is:  (6, 6)
My score is:  (32, 34)
My score is:  (13, 14)
My score is:  (14, 16)
My score is:  (33, 36)
My score is:  (42, 44)
My score is:  (9, 9)
My score is:  (32, 34)
My score is:  (28, 31)
My score is:  (34, 40)
My score is:  (26, 29)
My score is:  (36, 36)
My score is:  (42, 46)
My score is:  (25, 26)
My score is:  (38, 40)
My score is:  (30, 31)
My score is:  (30, 31)
My score is:  (28, 29)
My score is:  (25, 27)
My score is:  (28, 30)
My score is:  (26, 26)
My score is:  (30, 32)
My score is:  (27, 27)
My score is:  (30, 30)
My score is:  (24, 24)
My score is:  (33, 35)
My score is:  (28, 31)
My score is:  (28, 30)
My score is:  (19, 21)
My score is:  (22, 24)
My score is:  (47, 48)
My score is:  (11, 12)
My score is:  (32, 33)
My score is:  (31, 33)
My score is:  (39, 41)
My score is:  (42, 44)
My score is:  (31, 32)
My score is:  (6, 6)
My score is:  (36, 36)
My score is:  (23, 23)
My score is:  (26, 29)
My score is:  (43, 48)
My score is:  (22, 22)
My score is:  (11, 13)
My score is:  (39, 41)
My score is:  (24, 25)
My score is:  (56, 56)
My score is:  (25, 27)
My score is:  (39, 41)
My score is:  (22, 25)
My score is:  (29, 34)
My score is:  (20, 21)
My score is:  (31, 32)
My score is:  (21, 21)
My score is:  (31, 31)
My score is:  (17, 18)
My score is:  (43, 46)
My score is:  (6, 6)
My score is:  (37, 37)
My score is:  (17, 18)
My score is:  (24, 25)
My score is:  (25, 27)
My score is:  (23, 24)
My score is:  (28, 30)
My score is:  (22, 23)
My score is:  (26, 28)
My score is:  (49, 50)
My score is:  (23, 23)
My score is:  (32, 34)
My score is:  (21, 22)
My score is:  (29, 32)
My score is:  (18, 18)
My score is:  (16, 17)
My score is:  (11, 11)
My score is:  (22, 23)
My score is:  (21, 21)
My score is:  (33, 33)
My score is:  (18, 21)
My score is:  (23, 23)
My score is:  (24, 25)
My score is:  (37, 40)
My score is:  (32, 35)
My score is:  (28, 31)
My score is:  (21, 23)
My score is:  (38, 39)
My score is:  (16, 18)
My score is:  (17, 17)
My score is:  (26, 28)
My score is:  (35, 38)
My score is:  (17, 18)
My score is:  (12, 12)
My score is:  (27, 30)
My score is:  (2, 4)
My score is:  (20, 20)
My score is:  (24, 27)
My score is:  (23, 26)
My score is:  (20, 21)
My score is:  (23, 27)
My score is:  (6, 7)
My score is:  (42, 42)
My score is:  (19, 23)
My score is:  (28, 29)
My score is:  (29, 33)
My score is:  (11, 13)
My score is:  (16, 20)
My score is:  (31, 33)
My score is:  (34, 38)
My score is:  (27, 30)
My score is:  (9, 9)
My score is:  (6, 7)
My score is:  (38, 41)
My score is:  (21, 21)
My score is:  (36, 37)
My score is:  (25, 25)
My score is:  (32, 33)
My score is:  (40, 42)
My score is:  (17, 18)
My score is:  (30, 31)
My score is:  (23, 23)
My score is:  (22, 24)
My score is:  (18, 23)
My score is:  (20, 21)
My score is:  (13, 13)
My score is:  (20, 22)
My score is:  (23, 23)
My score is:  (38, 39)
My score is:  (11, 12)
My score is:  (42, 45)
My score is:  (37, 37)
My score is:  (14, 14)
My score is:  (7, 8)
My score is:  (22, 23)
My score is:  (18, 18)
My score is:  (20, 21)
My score is:  (16, 16)
My score is:  (5, 5)
My score is:  (18, 19)
My score is:  (7, 7)
My score is:  (31, 32)
My score is:  (15, 15)
My score is:  (22, 22)
My score is:  (14, 14)
My score is:  (27, 30)
My score is:  (35, 36)
My score is:  (31, 39)
My score is:  (17, 20)
My score is:  (18, 18)
My score is:  (24, 25)
My score is:  (25, 26)
My score is:  (28, 32)
My score is:  (8, 9)
My score is:  (15, 15)
My score is:  (63, 68)
My score is:  (15, 18)
My score is:  (38, 44)
My score is:  (39, 42)
My score is:  (20, 24)
My score is:  (27, 29)
My score is:  (12, 12)
My score is:  (24, 30)
My score is:  (52, 60)
My score is:  (11, 11)
My score is:  (22, 23)
My score is:  (16, 17)
My score is:  (69, 69)
My score is:  (23, 25)
My score is:  (19, 19)
My score is:  (21, 23)
My score is:  (35, 36)
My score is:  (17, 18)
My score is:  (23, 23)
My score is:  (41, 45)
My score is:  (30, 34)
My score is:  (47, 49)
My score is:  (19, 20)
My score is:  (39, 42)
My score is:  (23, 25)
My score is:  (28, 35)
My score is:  (30, 31)
My score is:  (26, 29)
My score is:  (19, 19)
My score is:  (11, 12)
My score is:  (19, 20)
My score is:  (11, 13)
My score is:  (16, 17)
My score is:  (18, 18)
My score is:  (29, 31)
My score is:  (27, 27)
My score is:  (27, 31)
My score is:  (31, 35)
My score is:  (10, 14)
My score is:  (16, 18)
My score is:  (26, 26)
My score is:  (29, 34)
My score is:  (5, 5)
My score is:  (10, 10)
My score is:  (33, 33)
My score is:  (17, 17)
My score is:  (19, 20)
My score is:  (26, 26)
My score is:  (24, 25)
My score is:  (21, 25)
My score is:  (9, 10)
My score is:  (16, 18)
My score is:  (13, 14)
My score is:  (9, 9)
My score is:  (9, 12)
My score is:  (24, 24)
My score is:  (17, 18)
My score is:  (29, 30)
My score is:  (10, 10)
My score is:  (24, 27)
My score is:  (21, 25)
My score is:  (21, 24)
My score is:  (31, 33)
My score is:  (18, 18)
My score is:  (14, 15)
My score is:  (25, 27)
My score is:  (11, 11)
My score is:  (9, 9)
My score is:  (22, 22)
My score is:  (16, 20)
My score is:  (16, 19)
My score is:  (18, 21)
My score is:  (9, 9)
My score is:  (19, 20)
My score is:  (2, 2)
My score is:  (6, 6)
My score is:  (18, 20)
My score is:  (9, 10)
My score is:  (16, 18)
My score is:  (13, 14)
My score is:  (28, 31)
My score is:  (64, 66)
My score is:  (24, 25)
My score is:  (21, 22)
My score is:  (32, 33)
My score is:  (28, 29)
My score is:  (12, 12)
My score is:  (12, 14)
My score is:  (8, 8)
My score is:  (23, 25)
My score is:  (6, 7)
My score is:  (22, 22)
My score is:  (12, 13)
My score is:  (16, 16)
My score is:  (19, 19)
My score is:  (25, 25)
My score is:  (12, 13)
My score is:  (17, 17)
My score is:  (35, 38)
My score is:  (35, 36)
My score is:  (10, 11)
My score is:  (28, 30)
My score is:  (31, 31)
My score is:  (13, 13)
My score is:  (9, 9)
My score is:  (39, 45)
My score is:  (28, 29)
My score is:  (28, 30)
My score is:  (34, 36)
My score is:  (20, 20)
My score is:  (25, 29)
My score is:  (38, 44)
My score is:  (6, 6)
My score is:  (34, 35)
My score is:  (20, 20)
My score is:  (26, 27)
My score is:  (35, 38)
My score is:  (17, 19)
My score is:  (12, 14)
My score is:  (38, 43)
My score is:  (42, 48)
My score is:  (34, 40)
My score is:  (46, 49)
My score is:  (28, 29)
My score is:  (31, 31)
My score is:  (26, 27)
My score is:  (20, 20)
My score is:  (29, 30)
My score is:  (36, 36)
My score is:  (28, 28)
My score is:  (27, 28)
My score is:  (34, 35)
My score is:  (31, 32)
My score is:  (17, 18)
My score is:  (21, 24)
My score is:  (13, 16)
My score is:  (26, 28)
My score is:  (15, 17)
My score is:  (29, 31)
My score is:  (10, 13)
My score is:  (30, 32)
My score is:  (23, 24)
My score is:  (16, 18)
My score is:  (10, 12)
My score is:  (21, 22)
My score is:  (12, 14)
My score is:  (18, 20)
My score is:  (16, 16)
My score is:  (21, 27)
My score is:  (18, 20)
My score is:  (10, 10)
My score is:  (15, 17)
My score is:  (21, 24)
My score is:  (10, 11)
My score is:  (5, 6)
My score is:  (25, 25)
My score is:  (22, 25)
My score is:  (10, 11)
My score is:  (11, 11)
My score is:  (13, 13)
My score is:  (19, 21)
My score is:  (15, 16)
My score is:  (24, 24)
My score is:  (16, 16)
My score is:  (24, 25)
My score is:  (32, 34)
My score is:  (17, 17)
My score is:  (16, 17)
My score is:  (9, 10)
My score is:  (21, 21)
My score is:  (30, 31)
My score is:  (21, 23)
My score is:  (13, 14)
My score is:  (48, 51)
My score is:  (42, 44)
My score is:  (24, 28)
My score is:  (30, 30)
My score is:  (25, 27)
My score is:  (39, 42)
My score is:  (41, 44)
My score is:  (16, 19)
My score is:  (30, 33)
My score is:  (20, 20)
My score is:  (11, 14)
My score is:  (20, 22)
My score is:  (14, 14)
My score is:  (41, 43)
My score is:  (36, 39)
My score is:  (39, 39)
My score is:  (56, 59)
My score is:  (46, 47)
My score is:  (17, 18)
My score is:  (26, 26)
My score is:  (32, 35)
My score is:  (12, 12)
My score is:  (37, 37)
My score is:  (43, 44)
My score is:  (25, 27)
My score is:  (24, 25)
My score is:  (16, 16)
My score is:  (18, 19)
My score is:  (24, 24)
My score is:  (47, 47)
My score is:  (30, 31)
My score is:  (47, 49)
My score is:  (25, 25)
My score is:  (25, 27)
My score is:  (31, 32)
My score is:  (27, 28)
My score is:  (49, 51)
My score is:  (43, 47)
My score is:  (30, 31)
My score is:  (18, 20)
My score is:  (30, 31)
My score is:  (14, 14)
My score is:  (21, 21)
My score is:  (40, 42)
My score is:  (35, 37)
My score is:  (19, 20)
My score is:  (32, 33)
My score is:  (12, 14)
My score is:  (11, 11)
My score is:  (19, 20)
My score is:  (14, 14)
My score is:  (18, 18)
My score is:  (28, 31)
My score is:  (22, 24)
My score is:  (42, 45)
My score is:  (19, 19)
My score is:  (27, 27)
My score is:  (23, 23)
My score is:  (19, 19)
My score is:  (27, 28)
My score is:  (27, 27)
My score is:  (17, 17)
My score is:  (21, 22)
My score is:  (20, 21)
My score is:  (34, 37)
My score is:  (27, 28)
My score is:  (16, 16)
My score is:  (25, 26)
My score is:  (15, 16)
My score is:  (27, 29)
My score is:  (23, 23)
My score is:  (46, 48)
My score is:  (20, 20)
My score is:  (29, 29)
My score is:  (10, 11)
My score is:  (30, 32)
My score is:  (35, 36)
My score is:  (31, 31)
My score is:  (18, 20)
My score is:  (27, 28)
My score is:  (26, 30)
My score is:  (19, 23)
My score is:  (27, 32)
My score is:  (37, 39)
My score is:  (16, 16)
My score is:  (32, 35)
My score is:  (11, 12)
My score is:  (26, 28)
My score is:  (36, 38)
My score is:  (7, 7)
My score is:  (12, 13)
My score is:  (32, 34)
My score is:  (19, 22)
My score is:  (25, 25)
My score is:  (23, 24)
My score is:  (30, 32)
My score is:  (24, 26)
My score is:  (29, 30)
My score is:  (32, 35)
My score is:  (28, 29)
My score is:  (28, 28)
My score is:  (35, 36)
My score is:  (35, 35)
My score is:  (47, 48)
My score is:  (13, 13)
My score is:  (29, 31)
My score is:  (23, 23)
My score is:  (19, 20)
My score is:  (40, 42)
My score is:  (28, 28)
My score is:  (26, 30)
My score is:  (44, 47)
My score is:  (23, 24)
My score is:  (14, 14)
My score is:  (12, 12)
My score is:  (22, 23)
My score is:  (26, 31)
My score is:  (18, 18)
My score is:  (20, 24)
My score is:  (11, 12)
My score is:  (30, 35)
My score is:  (27, 29)
My score is:  (20, 20)
My score is:  (27, 30)
My score is:  (30, 31)
My score is:  (14, 15)
My score is:  (18, 18)
My score is:  (14, 15)
My score is:  (10, 10)
My score is:  (4, 4)
My score is:  (35, 37)
My score is:  (28, 29)
My score is:  (33, 33)
My score is:  (44, 48)
My score is:  (37, 42)
My score is:  (21, 22)
My score is:  (56, 58)
My score is:  (24, 25)
My score is:  (47, 53)
My score is:  (19, 21)
My score is:  (13, 13)
My score is:  (23, 24)
My score is:  (22, 22)
My score is:  (28, 29)
My score is:  (10, 13)
My score is:  (28, 31)
My score is:  (23, 24)
My score is:  (29, 30)
My score is:  (18, 19)
My score is:  (51, 56)
My score is:  (16, 17)
My score is:  (22, 22)
My score is:  (7, 8)
My score is:  (15, 18)
My score is:  (40, 41)
My score is:  (26, 28)
My score is:  (5, 5)
My score is:  (9, 9)
My score is:  (21, 23)
My score is:  (34, 34)
My score is:  (38, 41)
My score is:  (19, 20)
My score is:  (26, 26)
My score is:  (24, 24)
My score is:  (20, 24)
My score is:  (31, 32)
My score is:  (32, 32)
My score is:  (19, 21)
My score is:  (29, 30)
My score is:  (10, 11)
My score is:  (26, 26)
My score is:  (34, 35)
My score is:  (9, 9)
My score is:  (24, 26)
My score is:  (21, 21)
My score is:  (14, 14)
My score is:  (11, 11)
My score is:  (39, 44)
My score is:  (35, 36)
My score is:  (43, 45)
My score is:  (43, 46)
My score is:  (44, 53)
My score is:  (25, 25)
My score is:  (23, 23)
My score is:  (12, 12)
My score is:  (24, 24)
My score is:  (34, 37)
My score is:  (28, 30)
My score is:  (14, 14)
My score is:  (6, 7)
My score is:  (38, 40)
My score is:  (45, 46)
My score is:  (27, 27)
My score is:  (18, 21)
My score is:  (63, 64)
My score is:  (18, 19)
My score is:  (40, 40)
My score is:  (36, 41)
My score is:  (32, 34)
My score is:  (35, 37)
My score is:  (12, 12)
My score is:  (38, 39)
My score is:  (25, 26)
My score is:  (44, 44)
My score is:  (36, 37)
My score is:  (38, 39)
My score is:  (26, 27)
My score is:  (9, 9)
My score is:  (23, 24)
My score is:  (30, 30)
My score is:  (29, 30)
Total:  25093 out of  26595 matching tags
